Session #2 - Exercises
…
## Parsed with column specification:
## cols(
##   id = col_double(),
##   genotype = col_character(),
##   treatment = col_character(),
##   gender = col_character(),
##   var_x = col_double(),
##   var_y = col_double(),
##   var_z = col_double(),
##   norm = col_double()
## )

mydata

## # A tibble: 240 x 8
##       id genotype treatment gender var_x var_y var_z  norm
##    <dbl> <chr>    <chr>     <chr>  <dbl> <dbl> <dbl> <dbl>
##  1     1 WT       CTR_X     M       98.6  97.6 104.      1
##  2     2 WT       CTR_X     M      105.   96.6 105.      1
##  3     3 WT       CTR_X     M       92.5 110.  113.      1
##  4     4 WT       CTR_X     M       89.2  99.2  93.5     1
##  5     5 WT       CTR_X     M       96.4 108.  112.      1
##  6     6 WT       CTR_X     M      109.   77.1  91.5     1
##  7     7 WT       CTR_X     M      108.  109.   83.5     1
##  8     8 WT       CTR_X     M       96.4 112.  103.      1
##  9     9 WT       CTR_X     M       94.3 107.  108.      1
## 10    10 WT       CTR_X     M       96.4  82.7 101.      1
## # ... with 230 more rows
…
